R: edibility rating, h: height, r: radius, ft: flowering time, sr: seed ripening time, gr: growth rate

2 full shade emergent plants:  Abies concolor ("Colorado Fir") R:0 h:45m r:4m , ft:4, sr:9 - 10, gr:F Abies sibirica ("Siberian Fir") R:0 h:30m r:15m , ft:5, sr:9, gr:
10 semi shade emergent plants:  Castanea dentata ("American Sweet Chestnut") R:5 h:30m r:7.5m , ft:7, sr:10, gr: Tilia platyphyllos ("Large Leaved Lime") R:5 h:30m r:10m , ft:6 - 7, sr:10, gr:M Acer saccharum ("Sugar Maple") R:4 h:30m r:6m , ft:4 - 5, sr:10 - 12, gr:S Acer rubrum ("Red Maple") R:3 h:30m r:15m , ft:3 - 4, sr:5 - 6, gr:F Acer saccharinum ("Silver Maple") R:3 h:30m r:7.5m , ft:2 - 3, sr:4 - 6, gr:F Aesculus hippocastanum ("Horse Chestnut") R:3 h:30m r:7.5m , ft:5, sr:9, gr:F Picea rubens ("Red Spruce") R:3 h:30m r:15m , ft:, sr:10 - 11, gr:F Tilia cordata ("Small Leaved Lime") R:3 h:30m r:6m , ft:6 - 7, sr:10, gr:M Parthenocissus quinquefolia ("Virginia Creeper") R:2 h:30m r:15m , ft:6 - 8, sr:10 - 11, gr:F Larix sibirica ("Siberian Larch") R:0 h:30m r:15m , ft:4 - 5, sr:10 - 11, gr:
10 no shade emergent plants:  Carya illinoinensis ("Pecan") R:3 h:40m r:10m , ft:4 - 5, sr:10, gr:M Pinus resinosa ("Red Pine") R:2 h:35m r:17.5m , ft:, sr:10 - 2, gr:M Carya ovata ("Shagbark Hickory") R:5 h:30m r:7.5m , ft:6, sr:10 - 11, gr:S Ginkgo biloba ("Maidenhair Tree") R:5 h:30m r:4.5m , ft:4 - 5, sr:10 - 11, gr:S Juglans nigra ("Black Walnut") R:4 h:30m r:10m , ft:5 - 6, sr:10, gr:F Picea abies ("Norway Spruce") R:2 h:30m r:5m , ft:5 - 6, sr:10 - 11, gr:F Populus balsamifera ("Balsam Poplar") R:2 h:30m r:4m , ft:, sr:, gr:F Populus deltoides ("Eastern Cottonwood") R:2 h:30m r:10m , ft:3 - 4, sr:5 - 6, gr:F Liriodendron tulipifera ("Tulip Tree") R:1 h:30m r:6m , ft:6 - 7, sr:10, gr: Platanus occidentalis ("Buttonwood") R:1 h:30m r:15m , ft:5, sr:10 - 3, gr:F
0 nitrogen fixing emergent plants: 
there are 22 emergent plants
3 full shade canopy plants:  Abies lasiocarpa ("Subalpine Fir") R:2 h:25m r:2m , ft:, sr:9, gr:S Abies balsamea ("Balsam Fir") R:3 h:15m r:2.5m , ft:5, sr:9 - 10, gr:S Hedera helix ("Ivy") R:0 h:15m r:2.5m , ft:10 - 11, sr:5 - 6, gr:M
31 semi shade canopy plants:  Castanea mollissima ("Chinese Chestnut") R:5 h:25m r:12.5m , ft:7, sr:10, gr: Quercus bicolor ("Swamp White Oak") R:4 h:25m r:12.5m , ft:5, sr:10, gr: Quercus rubra ("Red Oak") R:3 h:25m r:9m , ft:4 - 5, sr:10, gr:F Tilia americana ("American Basswood") R:3 h:25m r:6m , ft:7, sr:10, gr:M Ulmus americana ("American Elm") R:2 h:25m r:12.5m , ft:5, sr:6, gr:M Pinus sylvestris ("Scot's Pine") R:2 h:25m r:5m , ft:5, sr:3 - 6, gr:F Fraxinus americana ("White Ash") R:1 h:25m r:7.5m , ft:4 - 5, sr:9, gr:F Acer negundo ("Box Elder") R:2 h:21m r:4m , ft:4 - 5, sr:9 - 10, gr:F Acer platanoides ("Norway Maple") R:2 h:21m r:7.5m , ft:4 - 5, sr:9 - 10, gr:F Diospyros virginiana ("American Persimmon") R:5 h:20m r:10m , ft:6, sr:10 - 11, gr:M Betula nigra ("River Birch") R:3 h:20m r:10m , ft:3, sr:6, gr:F Quercus alba ("White Oak") R:3 h:20m r:5m , ft:4 - 5, sr:10, gr:S Quercus ellipsoidalis ("Northern Pin Oak") R:2 h:20m r:6.5m , ft:, sr:, gr:M Aesculus glabra ("Ohio Buckeye") R:1 h:20m r:10m , ft:6 - 7, sr:10, gr: Magnolia acuminata ("Cucumber Tree") R:0 h:20m r:5m , ft:5 - 7, sr:, gr:M Morus alba ("White Mulberry") R:4 h:18m r:5m , ft:5, sr:7 - 8, gr:M Populus tremula ("Aspen Poplar") R:2 h:18m r:5m , ft:2 - 3, sr:5 - 6, gr:F Parthenocissus tricuspidata ("Boston Ivy") R:1 h:18m r:9m , ft:7 - 8, sr:10 - 11, gr:F Alnus incana ("Grey Alder") R:0 h:18m r:2.5m n, ft:2 - 3, sr:, gr:F Actinidia arguta ("Tara Vine") R:5 h:15m r:7.5m , ft:6 - 7, sr:10, gr: Pinus cembra ("Swiss Stone Pine") R:4 h:15m r:3m , ft:5 - 6, sr:9, gr:S Pyrus ussuriensis ("Harbin Pear") R:4 h:15m r:7.5m , ft:4, sr:9 - 10, gr: Prunus padus ("Bird Cherry") R:3 h:15m r:4m , ft:5, sr:7 - 8, gr:F Quercus macrocarpa ("Burr Oak") R:3 h:15m r:4m , ft:5, sr:10, gr:S Vitis riparia ("Riverbank Grape") R:3 h:15m r:7.5m , ft:5 - 7, sr:8 - 9, gr:F Sorbus aucuparia ("Mountain Ash") R:2 h:15m r:3.5m , ft:5 - 6, sr:8 - 9, gr:M Thuja occidentalis ("American Arbor-Vitae") R:2 h:15m r:2.5m , ft:4 - 5, sr:9 - 10, gr:S Malus baccata ("Chinese Crab") R:2 h:15m r:7.5m , ft:4 - 5, sr:10, gr: Ilex opaca ("American Holly") R:2 h:15m r:0.75m , ft:5 - 6, sr:11 - 12, gr:S Ulmus pumila ("Siberian Elm") R:2 h:15m r:6m , ft:4, sr:5, gr: Ostrya virginiana ("Ironwood") R:0 h:15m r:6m , ft:9, sr:, gr:S
29 no shade canopy plants:  Robinia pseudoacacia ("Black Locust") R:3 h:25m r:7.5m n, ft:6, sr:11 - 3, gr:F Pinus ponderosa ("Ponderosa Pine") R:3 h:25m r:3.5m , ft:6, sr:10, gr:M Pinus flexilis ("Limber Pine") R:3 h:25m r:12.5m , ft:5 - 6, sr:9 - 10, gr:M Juglans cinerea ("Butternut") R:3 h:25m r:10m , ft:5 - 6, sr:10 - 11, gr:M Wisteria sinensis ("Chinese Wisteria") R:2 h:25m r:10m n, ft:5, sr:9 - 10, gr:M Picea omorika ("Serbian Spruce") R:2 h:25m r:2.5m , ft:5, sr:10 - 11, gr:F Juglans regia ("Walnut") R:5 h:20m r:10m , ft:6, sr:10, gr:M Pinus koraiensis ("Korean Nut Pine") R:4 h:20m r:10m , ft:5, sr:9, gr:M Betula papyrifera ("Paper Birch") R:4 h:20m r:2.5m , ft:4, sr:10, gr:F Pinus albicaulis ("White-Bark Pine") R:4 h:20m r:10m , ft:5 - 6, sr:9, gr:S Juglans ailanthifolia ("Japanese Walnut") R:4 h:20m r:7.5m , ft:6, sr:, gr: Betula pendula ("Silver Birch") R:4 h:20m r:5m , ft:4, sr:7 - 8, gr:F Gleditsia triacanthos ("Honey Locust") R:3 h:20m r:7.5m , ft:7, sr:10 - 11, gr:M Celtis occidentalis ("Hackberry") R:3 h:20m r:10m , ft:5, sr:10, gr:F Salix alba vitellina ("Golden Willow") R:2 h:20m r:5m , ft:4 - 5, sr:6, gr:F Populus tremuloides ("American Aspen") R:2 h:20m r:5m , ft:4, sr:5 - 6, gr:F Picea mariana ("Black Spruce") R:2 h:20m r:2m , ft:, sr:10 - 11, gr:S Picea engelmannii ("Mountain Spruce") R:2 h:20m r:3m , ft:, sr:9, gr:M Picea pungens ("Blue Spruce") R:2 h:20m r:2.5m , ft:, sr:9 - 10, gr:M Juniperus virginiana ("Pencil Cedar") R:2 h:20m r:4m , ft:4 - 5, sr:10, gr:S Fraxinus pennsylvanica ("Red Ash") R:1 h:20m r:10m , ft:5, sr:10, gr:F Salix amygdaloides ("Peach Leaved Willow") R:0 h:20m r:10m , ft:4, sr:5, gr:F Prunus serotina ("Rum Cherry") R:4 h:18m r:4m , ft:5 - 6, sr:9, gr:F Larix laricina ("Tamarack") R:2 h:18m r:9m , ft:3 - 4, sr:10, gr:M Picea glauca ("White Spruce") R:2 h:15m r:2.5m , ft:, sr:9, gr:F Maclura pomifera ("Osage Orange") R:2 h:15m r:6m , ft:5 - 6, sr:9 - 12, gr:M Paulownia tomentosa ("Foxglove Tree") R:1 h:15m r:5m , ft:5, sr:9 - 10, gr:F Catalpa speciosa ("Shawnee Wood") R:0 h:15m r:7.5m , ft:5 - 6, sr:10, gr: Metasequoia glyptostroboides ("Dawn Redwood") R:0 h:15m r:2m , ft:2 - 3, sr:10 - 11, gr:F
3 nitrogen fixing canopy plants:  Robinia pseudoacacia ("Black Locust") R:3 h:25m r:7.5m n, ft:6, sr:11 - 3, gr:F Wisteria sinensis ("Chinese Wisteria") R:2 h:25m r:10m n, ft:5, sr:9 - 10, gr:M Alnus incana ("Grey Alder") R:0 h:18m r:2.5m n, ft:2 - 3, sr:, gr:F
there are 63 canopy plants
4 full shade tree plants:  Fagus grandifolia ("American Beech") R:3 h:10m r:5m , ft:4 - 5, sr:10 - 11, gr:S Schisandra chinensis ("Wu Wei Zi") R:4 h:9m r:4.5m , ft:4 - 5, sr:8 - 10, gr:M Celastrus scandens ("Climbing Bittersweet") R:2 h:8m r:4m , ft:7 - 8, sr:10, gr: Cydonia oblonga ("Quince") R:3 h:7.5m r:3.5m , ft:5, sr:11, gr:M
31 semi shade tree plants:  Betula alleghaniensis ("Yellow Birch") R:3 h:12m r:1.5m , ft:4, sr:10, gr:F Carpinus caroliniana ("American Hornbeam") R:2 h:12m r:5m , ft:4 - 5, sr:11, gr:S Morus nigra ("Black Mulberry") R:5 h:10m r:7.5m , ft:5 - 6, sr:8 - 9, gr:S Actinidia kolomikta ("") R:4 h:10m r:5m , ft:6, sr:, gr: Lonicera ciliosa ("Orange Honeysuckle") R:2 h:10m r:5m , ft:6, sr:8, gr:M Crataegus phaenopyrum ("Washington Thorn") R:2 h:10m r:5m , ft:7, sr:10, gr: Sorbus americana ("American Mountain Ash") R:1 h:10m r:3.5m , ft:5 - 6, sr:9 - 10, gr:S Sorbus decora ("Showy Mountain Ash") R:1 h:10m r:4m , ft:5 - 6, sr:, gr: Malus domestica ("Apple") R:5 h:9m r:4.5m , ft:4 - 6, sr:, gr: Crataegus douglasii ("Black Hawthorn") R:4 h:9m r:4.5m , ft:5, sr:9, gr: Viburnum lentago ("Sheepberry") R:4 h:9m r:2.5m , ft:5 - 6, sr:9 - 10, gr: Juniperus communis ("Juniper") R:4 h:9m r:2m , ft:5 - 6, sr:10, gr:S Prunus armeniaca ("Apricot") R:3 h:9m r:3m , ft:3 - 4, sr:7 - 9, gr:M Acer glabrum ("Rock Maple") R:3 h:9m r:4.5m , ft:4, sr:9, gr: Prunus mahaleb ("Mahaleb Cherry") R:3 h:9m r:4.5m , ft:4 - 5, sr:, gr: Acer tataricum ("Tatarian Maple") R:2 h:9m r:4.5m , ft:5 - 6, sr:9, gr: Styrax japonica ("Japanese Storax") R:2 h:8m r:3m , ft:6, sr:10, gr:S Crataegus arnoldiana ("") R:5 h:7m r:3.5m , ft:5, sr:8 - 9, gr: Corylus heterophylla ("Siberian Filbert") R:5 h:7m r:3.5m , ft:4 - 5, sr:9 - 10, gr: Malus pumila ("Paradise Apple") R:3 h:7m r:3.5m , ft:4, sr:, gr: Humulus lupulus ("Hop") R:4 h:6m r:3m , ft:7 - 8, sr:9 - 10, gr:M Crataegus rotundifolia ("") R:3 h:6m r:2m , ft:6, sr:9, gr: Prunus americana ("American Plum") R:3 h:6m r:3m , ft:4, sr:8, gr:M Cornus florida ("Flowering Dogwood") R:2 h:6m r:4m , ft:5, sr:11, gr:M Prunus cerasus ("Sour Cherry") R:1 h:6m r:3m , ft:5, sr:7, gr: Cornus mas ("Cornelian Cherry") R:4 h:5m r:2.5m , ft:2 - 3, sr:9, gr:M Viburnum opulus ("Guelder Rose") R:3 h:5m r:2.5m , ft:6 - 7, sr:9 - 10, gr:M Cotinus coggygria ("Smoke Tree") R:2 h:5m r:2.5m , ft:6 - 7, sr:9 - 10, gr:M Lonicera japonica ("Japanese Honeysuckle") R:2 h:5m r:2.5m , ft:6 - 7, sr:, gr:F Viburnum lantana ("Wayfaring Tree") R:2 h:5m r:2m , ft:5 - 6, sr:7 - 9, gr:M Buxus sempervirens ("Box") R:1 h:5m r:2.5m , ft:4 - 5, sr:9, gr:S
18 no shade tree plants:  Pinus aristata ("Bristle-Cone Pine") R:2 h:12m r:2m , ft:, sr:10, gr:S Pinus banksiana ("Jack Pine") R:2 h:12m r:2.5m , ft:5, sr:1 - 2, gr:F Prunus pensylvanica ("Pin Cherry") R:2 h:12m r:4m , ft:4 - 5, sr:8, gr:F Campsis radicans ("Trumpet Vine") R:0 h:12m r:6m , ft:8 - 9, sr:, gr:F Acer spicatum ("Mountain Maple") R:2 h:10m r:5m , ft:5, sr:8, gr: Salix pentandra ("Bay Willow") R:2 h:10m r:5m , ft:5, sr:6, gr:F Salix acutifolia ("Sharp-Leaf Willow") R:1 h:10m r:5m , ft:, sr:, gr: Salix exigua ("Coyote Willow") R:1 h:9m r:4.5m , ft:5, sr:6, gr: Wisteria floribunda ("Japanese Wisteria") R:2 h:8m r:4m n, ft:6 - 7, sr:9 - 10, gr:M Elaeagnus angustifolia ("Oleaster") R:4 h:7m r:3.5m n, ft:6, sr:9 - 10, gr:M Salix bebbiana ("Beak Willow") R:0 h:7m r:3.5m , ft:5, sr:6, gr:F Hippophae rhamnoides ("Sea Buckthorn") R:5 h:6m r:1.25m n, ft:4, sr:9 - 10, gr:M Caragana arborescens ("Siberian Pea Tree") R:5 h:6m r:2m n, ft:5, sr:9, gr:F Rhus typhina ("Stag's Horn Sumach") R:4 h:6m r:3m , ft:6 - 8, sr:10 - 12, gr:F Salix viminalis ("Osier") R:3 h:6m r:2m , ft:4 - 5, sr:6, gr:F Maackia amurensis ("Chinese Yellow Wood") R:1 h:6m r:3m n, ft:7 - 8, sr:, gr: Syringa vulgaris ("Lilac") R:1 h:6m r:3m , ft:5, sr:8, gr:M Salix purpurea ("Purple Osier") R:3 h:5m r:2.5m , ft:3 - 4, sr:5, gr:F
5 nitrogen fixing tree plants:  Wisteria floribunda ("Japanese Wisteria") R:2 h:8m r:4m n, ft:6 - 7, sr:9 - 10, gr:M Elaeagnus angustifolia ("Oleaster") R:4 h:7m r:3.5m n, ft:6, sr:9 - 10, gr:M Caragana arborescens ("Siberian Pea Tree") R:5 h:6m r:2m n, ft:5, sr:9, gr:F Hippophae rhamnoides ("Sea Buckthorn") R:5 h:6m r:1.25m n, ft:4, sr:9 - 10, gr:M Maackia amurensis ("Chinese Yellow Wood") R:1 h:6m r:3m n, ft:7 - 8, sr:, gr:
there are 53 tree plants
4 full shade shrub plants:  Euonymus fortunei ("Winter Creeper") R:0 h:4.5m r:5m , ft:7, sr:, gr:M Ligustrum ovalifolium ("Privet") R:0 h:4m r:1.5m , ft:7, sr:10, gr:M Forsythia x intermedia ("") R:0 h:2.5m r:1.25m , ft:3 - 4, sr:, gr: Mahonia aquifolium ("Oregon Grape") R:4 h:2m r:0.75m , ft:1 - 5, sr:8 - 9, gr:
54 semi shade shrub plants:  Viburnum dentatum ("Arrow Wood") R:1 h:4.5m r:2.25m , ft:7 - 8, sr:, gr: Amorpha fruticosa ("False Indigo") R:1 h:4.5m r:2.25m n, ft:7, sr:, gr:M Amelanchier alnifolia ("Saskatoon") R:5 h:4m r:1.5m , ft:5, sr:6 - 7, gr: Sambucus canadensis ("American Elder") R:4 h:4m r:2m , ft:7, sr:9, gr:F Shepherdia argentea ("Buffalo Berry") R:3 h:4m r:2m n, ft:3, sr:7 - 12, gr:M Corylus americana ("American Hazel") R:3 h:4m r:2m , ft:4 - 5, sr:9 - 10, gr: Viburnum plicatum ("Japanese Snowball") R:2 h:4m r:2m , ft:6 - 7, sr:10 - 11, gr:M Sorbus scopulina ("Western Mountain Ash") R:2 h:4m r:2m , ft:5, sr:10, gr: Miscanthus sinensis ("Eulalia") R:1 h:4m r:0.5m , ft:8 - 9, sr:, gr: Hydrangea paniculata ("") R:1 h:4m r:2m , ft:7 - 8, sr:9 - 10, gr:F Philadelphus coronarius ("Mock Orange") R:0 h:4m r:2m , ft:6, sr:, gr:F Prunus virginiana ("Chokecherry") R:3 h:3.6m r:1.8m , ft:5, sr:8, gr:F Corylus cornuta ("Beaked Hazel") R:5 h:3m r:1.5m , ft:4 - 5, sr:9 - 10, gr: Hibiscus syriacus ("Rose Of Sharon") R:4 h:3m r:1m , ft:9, sr:10, gr:M Rubus occidentalis ("Black Raspberry") R:4 h:3m r:1.5m , ft:6, sr:, gr: Hydrangea macrophylla ("") R:3 h:3m r:1.5m , ft:7 - 9, sr:, gr: Rosa canina ("Dog Rose") R:3 h:3m r:1.5m , ft:6 - 7, sr:10 - 12, gr:F Sambucus racemosa ("Red Elder") R:3 h:3m r:1.5m , ft:4 - 5, sr:6 - 7, gr: Viburnum trilobum ("American Cranberry") R:3 h:3m r:1.5m , ft:6, sr:7 - 9, gr: Ligustrum obtusifolium ("") R:2 h:3m r:1.5m , ft:7, sr:10, gr: Alnus viridis crispa ("American Green Alder") R:2 h:3m r:1.5m n, ft:4 - 5, sr:, gr: Hydrangea arborescens ("Seven Barks") R:1 h:3m r:1m , ft:7 - 8, sr:, gr: Weigela florida ("") R:0 h:3m r:1.5m , ft:5 - 6, sr:, gr:M Philadelphus x virginalis ("") R:0 h:3m r:1.25m , ft:7 - 8, sr:, gr: Ligustrum vulgare ("Privet") R:0 h:3m r:1.5m , ft:6 - 7, sr:9 - 10, gr:M Calycanthus floridus ("Carolina Allspice") R:3 h:2.7m r:1m , ft:6 - 7, sr:, gr:M Viburnum edule ("Mooseberry") R:4 h:2.5m r:1.25m , ft:6, sr:10, gr: Cornus sericea ("Red Osier Dogwood") R:3 h:2.5m r:2m , ft:5 - 6, sr:, gr: Shepherdia canadensis ("Buffalo Berry") R:3 h:2.5m r:1.25m n, ft:4, sr:7 - 9, gr:M Aronia melanocarpa ("Black Chokeberry") R:3 h:2.5m r:1.5m , ft:7 - 8, sr:10 - 12, gr: Rosa acicularis ("Prickly Rose") R:2 h:2.5m r:1.25m , ft:5 - 6, sr:9, gr: Hibiscus moscheutos ("Swamp Rose Mallow") R:1 h:2.5m r:1m , ft:7 - 9, sr:8 - 10, gr:M Spiraea x arguta ("Garland Spiraea") R:0 h:2.5m r:1.25m , ft:4 - 5, sr:, gr: Ribes aureum ("Golden Currant") R:4 h:2.4m r:1.2m , ft:4, sr:7 - 8, gr: Cytisus scoparius ("Broom") R:3 h:2.4m r:0.5m n, ft:5 - 6, sr:8 - 11, gr:F Berberis gagnepainii ("") R:2 h:2.4m r:1m , ft:6, sr:9 - 10, gr: Rubus idaeus ("Raspberry") R:5 h:2m r:0.75m , ft:6 - 8, sr:7 - 9, gr: Rosa rugosa ("Ramanas Rose") R:5 h:2m r:1m , ft:6 - 8, sr:8 - 10, gr:M Myrica gale ("Bog Myrtle") R:2 h:2m r:0.5m n, ft:3 - 5, sr:8 - 9, gr: Rosa woodsii ("Western Wild Rose") R:2 h:2m r:1m , ft:6 - 7, sr:8 - 10, gr: Euonymus alatus ("Winged Spindle Tree") R:2 h:2m r:1.5m , ft:7 - 8, sr:10, gr: Berberis thunbergii ("Japanese Barberry") R:2 h:2m r:1.5m , ft:5, sr:, gr:M Kerria japonica ("Bachelor's Button") R:1 h:2m r:1m , ft:4 - 5, sr:, gr:M Ilex verticillata ("Winterberry") R:1 h:2m r:0.75m , ft:5 - 6, sr:10, gr:S Ribes nigrum ("Blackcurrant") R:5 h:1.8m r:0.9m , ft:4 - 5, sr:7 - 8, gr: Prinsepia sinensis ("") R:2 h:1.8m r:0.9m , ft:4 - 5, sr:8 - 9, gr:M Sorbaria sorbifolia ("") R:1 h:1.8m r:1.5m , ft:7 - 8, sr:9, gr: Spartina pectinata ("Prairie Cord Grass") R:0 h:1.8m r:0.9m , ft:5 - 7, sr:, gr: Asparagus officinalis ("Asparagus") R:4 h:1.5m r:0.375m , ft:8, sr:9 - 10, gr: Ribes oxyacanthoides ("American Mountain Gooseberry") R:3 h:1.5m r:0.75m , ft:, sr:, gr: Prunus tomentosa ("Nanking Cherry") R:3 h:1.5m r:1m , ft:3 - 4, sr:7, gr: Pycnanthemum pilosum ("Mountain Mint") R:2 h:1.5m r:0.3m , ft:8 - 9, sr:9 - 10, gr: Spiraea japonica ("Japanese Spiraea") R:0 h:1.5m r:0.75m , ft:8 - 9, sr:, gr: Phalaris arundinacea ("Canary Grass") R:0 h:1.5m r:1.5m , ft:7 - 9, sr:, gr:F
10 no shade shrub plants:  Asimina triloba ("Papaw") R:4 h:4.5m r:2m , ft:5 - 6, sr:10, gr:S Elaeagnus umbellata ("Autumn Olive") R:4 h:4.5m r:2m n, ft:5 - 6, sr:9 - 11, gr:M Pinus mugo ("Dwarf Mountain Pine") R:2 h:4.5m r:4m , ft:6, sr:10, gr: Juniperus sabina ("Savine") R:0 h:4m r:2m , ft:4, sr:10, gr:S Rhus glabra ("Smooth Sumach") R:4 h:3m r:1.5m , ft:7 - 8, sr:9 - 11, gr: Elaeagnus commutata ("Silverberry") R:3 h:3m r:0.75m n, ft:5, sr:7 - 9, gr:M Physocarpus opulifolius ("Ninebark") R:0 h:3m r:2m , ft:6 - 7, sr:, gr: Lonicera caerulea ("") R:3 h:2m r:1m , ft:4 - 5, sr:, gr: Andropogon gerardii ("Big Bluestem") R:0 h:2m r:1m , ft:7 - 8, sr:, gr: Monarda fistulosa ("Wild Bergamot") R:3 h:1.5m r:0.25m , ft:7, sr:8, gr:
8 nitrogen fixing shrub plants:  Elaeagnus umbellata ("Autumn Olive") R:4 h:4.5m r:2m n, ft:5 - 6, sr:9 - 11, gr:M Amorpha fruticosa ("False Indigo") R:1 h:4.5m r:2.25m n, ft:7, sr:, gr:M Shepherdia argentea ("Buffalo Berry") R:3 h:4m r:2m n, ft:3, sr:7 - 12, gr:M Elaeagnus commutata ("Silverberry") R:3 h:3m r:0.75m n, ft:5, sr:7 - 9, gr:M Alnus viridis crispa ("American Green Alder") R:2 h:3m r:1.5m n, ft:4 - 5, sr:, gr: Shepherdia canadensis ("Buffalo Berry") R:3 h:2.5m r:1.25m n, ft:4, sr:7 - 9, gr:M Cytisus scoparius ("Broom") R:3 h:2.4m r:0.5m n, ft:5 - 6, sr:8 - 11, gr:F Myrica gale ("Bog Myrtle") R:2 h:2m r:0.5m n, ft:3 - 5, sr:8 - 9, gr:
there are 68 shrub plants
2 full shade herb plants:  Chaenomeles japonica ("Dwarf Quince") R:3 h:1m r:1m , ft:4, sr:11 - 1, gr: Chaenomeles x superba ("Dwarf Quince") R:3 h:1m r:1m , ft:2 - 6, sr:10, gr:F
16 semi shade herb plants:  Apios americana ("Ground Nut") R:5 h:1.2m r:0.6m n, ft:6 - 9, sr:, gr: Ribes rubrum ("Red Currant") R:4 h:1.2m r:0.6m , ft:4 - 5, sr:7 - 8, gr: Yucca filamentosa ("Spoonleaf Yucca") R:3 h:1.2m r:0.3m , ft:7 - 8, sr:, gr:M Ribes alpinum ("Alpine Currant") R:3 h:1.2m r:0.5m , ft:4 - 5, sr:7 - 8, gr: Hemerocallis fulva ("Common Day Lily") R:5 h:1m r:0.5m , ft:6 - 8, sr:, gr: Carex aquatilis ("") R:1 h:1m r:0.75m , ft:7, sr:7 - 8, gr: Chasmanthium latifolium ("Indian Woodoats") R:1 h:1m r:0.5m , ft:, sr:, gr: Diervilla lonicera ("Bush Honeysuckle") R:0 h:1m r:0.5m , ft:7 - 8, sr:, gr: Lobelia siphilitica ("Great Blue Lobelia") R:0 h:1m r:0.125m , ft:8 - 9, sr:, gr: Prunus tenella ("Dwarf Russian Almond") R:3 h:0.8m r:0.75m , ft:4, sr:7 - 8, gr: Asclepias tuberosa ("Pleurisy Root") R:5 h:0.75m r:0.225m , ft:7 - 9, sr:, gr: Melissa officinalis ("Lemon Balm") R:3 h:0.7m r:0.2m , ft:6 - 10, sr:8 - 10, gr: Achillea millefolium ("Yarrow") R:4 h:0.6m r:0.3m , ft:6 - 8, sr:7 - 9, gr: Liatris spicata ("Gayfeather") R:0 h:0.6m r:0.15m , ft:9, sr:10, gr: Ribes triste ("American Red Currant") R:3 h:0.5m r:0.25m , ft:, sr:, gr: Ruta graveolens ("Rue") R:3 h:0.5m r:0.25m , ft:6 - 9, sr:8 - 10, gr:
9 no shade herb plants:  Rhus aromatica ("Lemon Sumach") R:4 h:1.2m r:0.75m , ft:4, sr:9, gr: Caragana pygmaea ("") R:2 h:1.2m r:0.6m n, ft:5, sr:9, gr: Echinacea purpurea ("Echinacea") R:2 h:1.2m r:0.25m , ft:7 - 8, sr:, gr: Lonicera involucrata ("Twinberry") R:2 h:1.2m r:0.6m , ft:5, sr:7 - 9, gr:M Echinacea angustifolia ("Echinacea") R:0 h:1.2m r:0.225m , ft:7 - 8, sr:, gr: Nepeta cataria ("Catmint") R:3 h:1m r:0.3m , ft:7 - 11, sr:9 - 10, gr: Prunus fruticosa ("Mongolian Cherry") R:3 h:1m r:0.5m , ft:5, sr:7 - 8, gr: Juniperus horizontalis ("Creeping Juniper") R:2 h:1m r:1.5m , ft:, sr:10, gr: Chenopodium capitatum ("Strawberry Blite") R:3 h:0.6m r:0.3m , ft:7 - 8, sr:8 - 9, gr:
2 nitrogen fixing herb plants:  Apios americana ("Ground Nut") R:5 h:1.2m r:0.6m n, ft:6 - 9, sr:, gr: Caragana pygmaea ("") R:2 h:1.2m r:0.6m n, ft:5, sr:9, gr:
there are 27 herb plants
4 full shade ground cover plants:  Bergenia cordifolia ("") R:0 h:0.3m r:0.375m , ft:3 - 4, sr:, gr: Pachysandra terminalis ("Japanese Spurge") R:2 h:0.2m r:0.25m , ft:4 - 5, sr:9 - 10, gr:M Asarum canadense ("Snake Root") R:4 h:0.1m r:0.25m , ft:5, sr:, gr:S Arctostaphylos uva-ursi ("Bearberry") R:3 h:0.1m r:0.5m , ft:4 - 7, sr:7 - 9, gr:M
10 semi shade ground cover plants:  Allium canadense ("Canadian Garlic") R:4 h:0.45m r:0.1m , ft:5 - 6, sr:, gr: Stachys affinis ("Chinese Artichoke") R:4 h:0.45m r:0.225m , ft:7 - 8, sr:, gr: Coriandrum sativum ("Coriander") R:3 h:0.45m r:0.125m , ft:6 - 7, sr:8 - 9, gr: Camassia quamash ("Quamash") R:5 h:0.3m r:0.075m , ft:5 - 6, sr:7 - 8, gr: Fragaria vesca ("Wild Strawberry") R:3 h:0.25m r:0.5m , ft:4 - 7, sr:5 - 9, gr: Festuca ovina ("Sheep's Fescue") R:1 h:0.25m r:0.125m , ft:5 - 6, sr:, gr: Galanthus nivalis ("Snowdrop") R:0 h:0.2m r:0.04m , ft:2 - 3, sr:5 - 6, gr: Chamaemelum nobile ("Camomile") R:4 h:0.15m r:0.15m , ft:6 - 7, sr:7 - 10, gr: Fragaria ("") R:3 h:0.15m r:0.5m , ft:5 - 11, sr:6 - 11, gr: Viola tricolor ("Heartsease") R:2 h:0.15m r:0.075m , ft:4 - 9, sr:6 - 9, gr:
5 no shade ground cover plants:  Ceratostigma plumbaginoides ("") R:0 h:0.4m r:0.25m , ft:8 - 10, sr:, gr: Valerianella locusta ("Corn Salad") R:4 h:0.3m r:0.15m , ft:4 - 6, sr:5 - 7, gr: Acorus gramineus ("") R:3 h:0.3m r:0.075m , ft:, sr:, gr: Plantago major ("Common Plantain") R:2 h:0.12m r:0.05m , ft:5 - 9, sr:7 - 10, gr: Trifolium repens ("White Clover") R:3 h:0.1m r:0.5m n, ft:6 - 9, sr:7 - 10, gr:M
1 nitrogen fixing ground cover plants:  Trifolium repens ("White Clover") R:3 h:0.1m r:0.5m n, ft:6 - 9, sr:7 - 10, gr:M
there are 19 ground cover plants

